

  60 +-+------+--------+-------+--------+--------+--------+-------+------+-+
     +        +        +       +        +        +        +       +      . +
  55 +-+                                'Data/01-range-20-100.txt'      .+-+
  50 +-+                                                            . .  +-.
     |                                                        .   . .  ..  .
  45 +-+                                                   .  .   ..     +-.
     |                                             .      ..   ...         |
  40 +-+                                                . . ..   .       +-+
     |                                       ..  . ...       .             |
  35 +-+                                .   ..   .       .               +-+
  30 +-+                              ...     ..                         +-+
     |                      .  .  ..    .                                  |
  25 +-+                    . .. ... .                                   +-+
     |                 ... ..  .                                           |
  20 +-+        . ... ....                                               +-+
     |        .  . .      .                                                |
  15 +-. .                                                               +-+
  10 ... .      .                                                        +-+
     +        +        +       +        +        +        +       +        +
   5 +-+------+--------+-------+--------+--------+--------+-------+------+-+
     20       30       40      50       60       70       80      90      100

