5058	2509.00
5084	2557.00
5146	2586.00
5168	2609.00
5220	2576.00
5318	2674.00
5357	2699.00
5535	2750.00
5556	2744.00
5580	2802.00
5590	2803.00
5600	2773.00
5638	2801.00
5771	2888.00
5863	2946.00
5951	2984.00
5997	2998.00
6018	2993.00
6043	3043.00
6063	3062.00
6073	3027.00
6109	2994.00
6158	3051.00
6385	3199.00
6412	3216.00
6418	3228.00
6597	3314.00
6602	3296.00
6665	3287.00
6692	3342.00
6712	3361.00
6713	3399.00
6731	3372.00
6781	3414.00
6908	3490.00
6985	3481.00
6990	3509.00
7005	3489.00
7034	3488.00
7155	3540.00
7258	3619.00
7298	3683.00
7387	3718.00
7437	3740.00
7521	3736.00
7543	3741.00
7574	3818.00
7591	3811.00
7598	3793.00
7728	3869.00
7733	3873.00
7776	3898.00
7806	3888.00
7820	3867.00
7861	3946.00
7875	3928.00
7907	3959.00
7951	4022.00
7954	3956.00
7966	3982.00
8039	4006.00
8043	4008.00
8094	4065.00
8133	4098.00
8288	4151.00
8298	4148.00
8359	4150.00
8386	4185.00
8400	4184.00
8407	4237.00
8415	4221.00
8416	4228.00
8419	4241.00
8468	4234.00
8543	4247.00
8596	4322.00
8598	4227.00
8724	4377.00
8786	4366.00
8797	4415.00
8809	4362.00
8927	4486.00
8964	4453.00
8974	4502.00
9203	4655.00
9368	4667.00
9388	4624.00
9429	4738.00
9435	4719.00
9486	4739.00
9602	4771.00
9632	4778.00
9688	4873.00
9724	4912.00
9748	4880.00
9772	4863.00
9797	4909.00
9838	4910.00
9917	4929.00
9968	4976.00
