66	33.88
36	20.47
54	29.17
70	37.36
23	11.35
39	19.33
34	19.35
90	45.58
84	40.75
25	15.96
73	36.74
21	10.90
20	11.25
42	25.12
83	43.86
51	24.53
35	18.69
53	28.81
24	12.92
30	13.47
81	40.80
86	43.02
51	24.53
35	18.69
53	28.81
24	12.92
30	13.47
81	40.80
86	43.02
51	24.53
35	18.69
53	28.81
24	12.92
30	13.47
81	40.80
86	43.02
51	24.53
35	18.69
53	28.81
24	12.92
30	13.47
81	40.80
86	43.02
51	24.53
35	18.69
53	28.81
24	12.92
30	13.47
81	40.80
86	43.02
51	24.53
35	18.69
53	28.81
24	12.92
30	13.47
81	40.80
86	43.02
51	24.53
35	18.69
53	28.81
24	12.92
30	13.47
81	40.80
86	43.02
51	24.53
35	18.69
53	28.81
24	12.92
30	13.47
81	40.80
86	43.02
51	24.53
35	18.69
53	28.81
24	12.92
30	13.47
81	40.80
86	43.02
51	24.53
35	18.69
53	28.81
24	12.92
30	13.47
81	40.80
86	43.02
51	24.53
35	18.69
53	28.81
24	12.92
30	13.47
81	40.80
86	43.02
51	24.53
35	18.69
53	28.81
24	12.92
30	13.47
81	40.80
86	43.02
51	24.53
