6104	2978.93
6104	2978.93
6104	2978.93
6104	2978.93
6104	2978.93
6104	2978.93
6459	3240.29
6459	3245.48
6459	3245.48
6459	3245.48
6459	3245.48
6459	3245.48
6459	3245.48
6459	3245.48
6459	3245.48
6459	3245.48
6459	3245.48
6459	3245.48
6459	3245.48
6459	3245.48
6459	3245.48
6459	3245.48
6459	3245.48
6459	3245.48
6459	3245.48
6459	3245.48
6459	3245.48
6459	3245.48
6459	3245.48
7437	3692.28
7437	3717.08
7437	3717.08
7437	3717.08
7437	3717.08
7437	3717.08
7437	3717.08
7437	3717.08
7437	3717.08
7437	3717.08
7437	3717.08
7437	3717.08
7437	3717.08
7437	3717.08
7811	3934.03
7811	3948.54
7811	3948.54
7811	3948.54
7811	3948.54
7811	3948.54
7811	3948.54
7811	3948.54
7811	3948.54
7811	3948.54
7811	3948.54
7811	3948.54
7811	3948.54
7811	3948.54
7811	3948.54
7811	3948.54
7811	3948.54
7811	3948.54
7811	3948.54
7811	3948.54
7811	3948.54
8598	4279.77
8880	4440.09
8880	4440.09
8880	4440.09
8880	4440.09
8880	4440.09
8880	4440.09
8880	4440.09
8880	4440.09
8880	4440.09
8880	4440.09
8880	4440.09
8880	4440.09
8880	4440.09
8880	4440.09
8880	4440.09
8880	4440.09
8880	4440.09
8880	4466.36
9607	4804.74
9607	4804.74
9607	4804.74
9607	4804.74
9607	4804.74
9607	4804.74
9607	4804.74
9607	4804.74
9607	4804.74
9607	4804.74
9607	4804.74
9607	4804.74
9607	4804.74
9607	4804.74
9607	4804.74
9607	4804.74
9607	4815.35
