 ** : Creating object Objects/01-4folds-cout.o, from ../../drivers/01-4folds-cout.cpp
----------------------------------------

../../drivers/01-4folds-cout.cpp:1:57: fatal error: dragon.h: No such file or directory
compilation terminated.
----------------------------------------
 ** : Creating object Objects/02-8folds-file.o, from ../../drivers/02-8folds-file.cpp
----------------------------------------

../../drivers/02-8folds-file.cpp:1:57: fatal error: dragon.h: No such file or directory
compilation terminated.
----------------------------------------
 ** : Creating object Objects/03-12folds-file.o, from ../../drivers/03-12folds-file.cpp
----------------------------------------

../../drivers/03-12folds-file.cpp:1:57: fatal error: dragon.h: No such file or directory
compilation terminated.
----------------------------------------
 ** : Creating binary 01-4folds-cout.exe, from Objects/01-4folds-cout.o
----------------------------------------

g++: error: Objects/01-4folds-cout.o: No such file or directory
g++: fatal error: no input files
compilation terminated.
----------------------------------------
 ** : Creating binary 02-8folds-file.exe, from Objects/02-8folds-file.o
----------------------------------------

g++: error: Objects/02-8folds-file.o: No such file or directory
g++: fatal error: no input files
compilation terminated.
----------------------------------------
 ** : Creating binary 03-12folds-file.exe, from Objects/03-12folds-file.o
----------------------------------------

g++: error: Objects/03-12folds-file.o: No such file or directory
g++: fatal error: no input files
compilation terminated.
----------------------------------------
