1036	497.06
1898	956.02
3383	1621.69
2451	1199.83
2649	1347.02
269	136.05
2871	1466.48
4831	2428.60
1955	891.33
1243	570.32
3829	1739.36
1502	720.06
2651	1117.40
2691	1369.49
3422	1838.90
654	342.63
2061	1083.44
3736	1986.35
2163	1123.25
4673	2409.61
2006	975.67
1457	708.62
2862	1349.32
4639	2497.06
4296	2204.68
4803	2418.31
2193	1122.41
1357	669.49
461	238.23
250	126.52
1251	629.97
2463	1292.15
321	170.94
3213	1626.04
2390	1212.80
778	396.75
2088	1136.38
4820	2424.67
3271	1647.50
4079	1968.94
1714	835.21
4873	2365.55
4025	1913.28
4526	2367.27
603	307.44
829	430.25
1208	591.70
989	502.83
199	104.21
4741	2278.69
2961	1383.60
2849	1285.51
2418	1178.99
4492	2380.45
2862	1349.32
4639	2497.06
4296	2204.68
4803	2418.31
2193	1122.41
1357	669.49
461	238.23
250	126.52
1251	629.97
2463	1292.15
321	170.94
3213	1626.04
2390	1212.80
778	396.75
2088	1136.38
4820	2424.67
3271	1647.50
4079	1968.94
1714	835.21
4873	2365.55
4025	1913.28
4526	2367.27
603	307.44
829	430.25
1208	591.70
989	502.83
199	104.21
4741	2278.69
2961	1383.60
2849	1285.51
2418	1178.99
4492	2380.45
2862	1349.32
4639	2497.06
4296	2204.68
4803	2418.31
2193	1122.41
1357	669.49
461	238.23
250	126.52
1251	629.97
2463	1292.15
321	170.94
3213	1626.04
2390	1212.80
778	396.75
