::::::::::::::
00_overall.txt
::::::::::::::
Score with two Midterms: 35.0000
Score with one Midterm:  44.0000
Overall score: 44.00
::::::::::::::
01_overall.txt
::::::::::::::
Score with two Midterms: 20.0000
Score with one Midterm:  30.0000
Overall score: 30.00
::::::::::::::
02_overall.txt
::::::::::::::
Score with two Midterms: 20.0000
Score with one Midterm:  30.0000
Overall score: 30.00
::::::::::::::
03_overall.txt
::::::::::::::
Score with two Midterms: 40.0000
Score with one Midterm:  30.0000
Overall score: 40.00
::::::::::::::
04_overall.txt
::::::::::::::
Score with two Midterms: 75.0000
Score with one Midterm:  74.0000
Overall score: 75.00
::::::::::::::
05_overall.txt
::::::::::::::
Score with two Midterms: 21.8750
Score with one Midterm:  21.8750
Overall score: 21.88
::::::::::::::
06_overall.txt
::::::::::::::
Score with two Midterms: 96.8750
Score with one Midterm:  95.8750
Overall score: 96.88
::::::::::::::
xibalba_overall.txt
::::::::::::::
Score with two Midterms: 88.4313
Score with one Midterm:  88.3512
Overall score: 88.43
