 ** : Creating object Objects/01-combined.o, from ../../drivers/01-combined.cpp
----------------------------------------

----------------------------------------
 ** : Creating object Objects/02-mystery.o, from ../../drivers/02-mystery.cpp
----------------------------------------

../../drivers/02-mystery.cpp: In function ‘int main()’:
../../drivers/02-mystery.cpp:39:11: error: no match for ‘operator!=’ (operand types are ‘int’ and ‘Time’)
    if ( 5 != a ) cout << "PASSED\n\t";
           ^
../../drivers/02-mystery.cpp:43:11: error: no match for ‘operator==’ (operand types are ‘int’ and ‘const Time’)
    if ( 5 == b ) cout << "PASSED\n";
           ^
----------------------------------------
 ** : Creating object Objects/03-ultimate.o, from ../../drivers/03-ultimate.cpp
----------------------------------------

----------------------------------------
 ** : Creating object Objects/time_class.o from time_class.cpp
----------------------------------------

----------------------------------------
 ** : Creating binary 01-combined.exe, from Objects/01-combined.o
----------------------------------------

----------------------------------------
 ** : Creating binary 02-mystery.exe, from Objects/02-mystery.o
----------------------------------------

g++: error: Objects/02-mystery.o: No such file or directory
----------------------------------------
 ** : Creating binary 03-ultimate.exe, from Objects/03-ultimate.o
----------------------------------------

----------------------------------------
