 ** : Attempting to run: 01-range-20-100.exe
	Completed in:	0:00.00	[hr:]min:sec
 ** : Attempting to run: 02-range-100-5k.exe
	Completed in:	0:00.08	[hr:]min:sec
 ** : Attempting to run: 03-range-5k-10k.exe
	Completed in:	0:00.36	[hr:]min:sec
 ** : Attempting to run: 03-range-5k-10k.exe
	Completed in:	0:00.27	[hr:]min:sec
