Score A: 89.0786
Score B: 88.9986
Overall score: 89.08%
Score A: 35.0000
Score B: 44.0000
Overall score: 44.00%
Score A: 20.0000
Score B: 30.0000
Overall score: 30.00%
Score A: 20.0000
Score B: 30.0000
Overall score: 30.00%
Score A: 40.0000
Score B: 30.0000
Overall score: 40.00%
Score A: 75.0000
Score B: 74.0000
Overall score: 75.00%
Score A: 25.0000
Score B: 25.0000
Overall score: 25.00%
Score A: 100.0000
Score B: 99.0000
Overall score: 100.00%
