8598	4276.00
9160	4601.00
5178	2573.00
9869	4922.00
5420	2707.00
7819	3922.00
6678	3334.00
5234	2606.00
6210	3115.00
7864	3915.00
8726	4388.00
5936	2986.00
8999	4488.00
6422	3215.00
8283	4146.00
5777	2889.00
7744	3840.00
7906	3967.00
7863	3919.00
5343	2650.00
6771	3387.00
8168	4077.00
7542	3790.00
9340	4697.00
8945	4399.00
7048	3561.00
8143	4045.00
7530	3765.00
7665	3870.00
9890	4961.00
6937	3446.00
5902	2956.00
8974	4487.00
9371	4703.00
9091	4555.00
5259	2617.00
6680	3343.00
9464	4798.00
6615	3270.00
6999	3493.00
6074	3059.00
5408	2710.00
8627	4294.00
7132	3531.00
5863	2947.00
5200	2619.00
5031	2531.00
8506	4245.00
7388	3690.00
7848	3968.00
5744	2875.00
5259	2612.00
5317	2637.00
6166	3078.00
7061	3526.00
7237	3615.00
5345	2693.00
9528	4754.00
8853	4410.00
9971	5009.00
6213	3074.00
9191	4601.00
6440	3220.00
8007	4018.00
9444	4699.00
9023	4511.00
6668	3341.00
5585	2793.00
6828	3407.00
5824	2934.00
9829	4907.00
9251	4637.00
7638	3823.00
7607	3830.00
5013	2511.00
9896	4994.00
8880	4465.00
6738	3385.00
5761	2862.00
8559	4270.00
6328	3190.00
5133	2592.00
9583	4767.00
8840	4484.00
5729	2908.00
9422	4729.00
7902	3960.00
8036	3978.00
7479	3739.00
7018	3486.00
6614	3289.00
6429	3193.00
9528	4773.00
7509	3734.00
8729	4375.00
9298	4643.00
6562	3253.00
7787	3890.00
9196	4589.00
5920	2983.00
