66	33.46
61	31.05
38	19.52
59	30.00
72	36.46
46	23.43
96	48.57
60	30.58
26	13.47
38	19.48
77	39.00
29	14.99
66	33.58
66	33.43
71	36.02
79	40.02
100	50.38
70	35.44
68	34.43
92	46.55
25	12.95
45	22.95
88	44.60
35	17.97
92	46.53
81	40.93
100	50.53
28	14.60
39	19.94
38	19.56
100	50.58
48	24.51
84	42.48
51	25.97
29	15.05
61	31.00
55	28.01
98	49.48
23	12.03
26	13.53
43	22.01
49	24.96
98	49.52
49	25.05
35	18.00
66	33.49
36	18.51
31	15.99
48	24.45
76	38.48
65	33.02
41	20.99
52	26.49
55	28.12
84	42.51
56	28.41
90	45.44
100	50.50
55	28.01
87	44.05
69	35.03
77	39.03
71	35.93
93	47.10
88	44.43
96	48.61
90	45.49
24	12.56
73	37.09
73	36.97
73	36.97
22	11.51
76	38.56
55	28.07
30	15.46
69	34.91
84	42.49
43	22.09
54	27.53
43	22.05
85	43.06
31	16.01
84	42.59
82	41.54
66	33.54
37	19.00
43	22.07
80	40.56
62	31.48
73	36.98
55	28.10
60	30.57
29	15.03
66	33.48
40	20.50
86	43.47
44	22.46
47	24.02
55	28.04
27	14.09
