66	19.52
87	39.10
22	3.49
86	33.62
96	44.24
39	6.69
41	7.73
71	23.35
71	23.35
71	23.35
71	23.35
71	23.35
71	23.35
71	23.35
71	23.35
71	23.35
71	23.35
71	23.35
71	23.35
71	23.35
71	23.35
71	23.35
71	23.35
71	23.35
71	23.35
71	23.35
71	23.35
71	23.35
71	23.35
71	23.35
71	23.35
71	23.35
71	23.35
71	23.35
71	23.35
71	23.35
71	23.35
71	23.35
71	23.35
71	23.35
71	23.35
71	23.35
71	23.35
71	23.35
71	23.35
71	23.35
71	23.35
71	23.35
71	23.35
71	23.35
71	23.35
71	23.35
71	23.35
71	23.35
71	23.35
71	23.35
71	23.35
71	23.35
71	23.35
71	23.35
71	23.35
71	23.35
71	23.35
71	23.35
71	23.35
71	23.35
71	23.35
71	23.35
71	23.35
71	23.35
71	23.35
71	23.35
71	23.35
71	23.35
71	23.35
71	23.35
71	23.35
71	23.35
71	23.35
71	23.35
71	23.35
71	23.35
71	23.35
71	23.35
71	23.35
71	23.35
71	23.35
71	23.35
71	23.35
71	23.35
71	23.35
71	23.35
71	23.35
71	23.35
71	23.35
71	23.35
71	23.35
71	23.35
71	23.35
71	23.35
