1036	565.46
961	452.62
3036	1386.31
491	241.59
4228	1931.73
3218	1785.64
709	329.56
1468	704.52
3910	1918.25
2671	1358.19
695	315.10
435	216.78
782	411.04
2923	1437.65
2526	1242.89
4997	2500.94
2348	1167.33
3500	1898.62
2523	1313.19
663	368.26
2512	1396.00
1518	808.86
3585	1859.40
243	125.90
3783	1895.76
2805	1469.82
4558	1885.88
208	105.70
2587	1203.91
435	216.78
782	411.04
2923	1437.65
2526	1242.89
4997	2500.94
2348	1167.33
3500	1898.62
2523	1313.19
663	368.26
2512	1396.00
1518	808.86
3585	1859.40
243	125.90
3783	1895.76
2805	1469.82
4558	1885.88
208	105.70
2587	1203.91
435	216.78
782	411.04
2923	1437.65
2526	1242.89
4997	2500.94
2348	1167.33
3500	1898.62
2523	1313.19
663	368.26
2512	1396.00
1518	808.86
3585	1859.40
243	125.90
3783	1895.76
2805	1469.82
4558	1885.88
208	105.70
2587	1203.91
435	216.78
782	411.04
2923	1437.65
2526	1242.89
4997	2500.94
2348	1167.33
3500	1898.62
2523	1313.19
663	368.26
2512	1396.00
1518	808.86
3585	1859.40
243	125.90
3783	1895.76
2805	1469.82
4558	1885.88
208	105.70
2587	1203.91
435	216.78
782	411.04
2923	1437.65
2526	1242.89
4997	2500.94
2348	1167.33
3500	1898.62
2523	1313.19
663	368.26
2512	1396.00
1518	808.86
3585	1859.40
243	125.90
3783	1895.76
2805	1469.82
4558	1885.88
208	105.70
