 ** : Creating object Objects/hw1-driver.o, from ../../drivers/hw1-driver.cpp
----------------------------------------

----------------------------------------
 ** : Creating object Objects/hw1.o from hw1.cpp
----------------------------------------

hw1.cpp: In member function 'double grade::grade_hw() const':
hw1.cpp:74:33: warning: comparison between signed and unsigned integer expressions [-Wsign-compare]
     for (int i = 0; i < hw.size(); i++){
                                 ^
hw1.cpp:79:33: warning: comparison between signed and unsigned integer expressions [-Wsign-compare]
     for (int i = 1; i < hw.size(); i++ ){
                                 ^
----------------------------------------
 ** : Creating binary hw1-driver.exe, from Objects/hw1-driver.o
----------------------------------------

----------------------------------------
