Assignment 2 (compilation results)

Student: 004968954 ------- Compilation Successful -------
Student: 004996669 XXXXXXX Compilation Failed XXXXXXXXXXX
Student: 104811260 XXXXXXX Compilation Failed XXXXXXXXXXX
Student: 104932728 ------- Compilation Successful -------
Student: 104941619 ------- Compilation Successful -------
Student: 105202752 XXXXXXX Compilation Failed XXXXXXXXXXX
Student: 105204096 ------- Compilation Successful -------
Student: 105265099 ------- Compilation Successful -------
Student: 204915304 XXXXXXX Compilation Failed XXXXXXXXXXX
Student: 204958732 ------- Compilation Successful -------
Student: 205192620 ------- Compilation Successful -------
Student: 304640154 ------- Compilation Successful -------
Student: 304920036 XXXXXXX Compilation Failed XXXXXXXXXXX
Student: 304921955 XXXXXXX Compilation Failed XXXXXXXXXXX
Student: 305207517 XXXXXXX Compilation Failed XXXXXXXXXXX
Student: 404757742 XXXXXXX Compilation Failed XXXXXXXXXXX
Student: 405093799 ------- Compilation Successful -------
Student: 504743702 ------- Compilation Successful -------
Student: 504789610 ------- Compilation Successful -------
Student: 504973095 ------- Compilation Successful -------
Student: 505039636 ------- Compilation Successful -------
Student: 505155800 ------- Compilation Successful -------
Student: 604792971 XXXXXXX Compilation Failed XXXXXXXXXXX
Student: 605097094 ------- Compilation Successful -------
Student: 605135779 ------- Compilation Successful -------
Student: 605199361 XXXXXXX Compilation Failed XXXXXXXXXXX
Student: 704750942 ------- Compilation Successful -------
Student: 704772425 XXXXXXX Compilation Failed XXXXXXXXXXX
Student: 704964858 ------- Compilation Successful -------
Student: 704985554 ------- Compilation Successful -------
Student: 705192552 ------- Compilation Successful -------
Student: 705212767 XXXXXXX Compilation Failed XXXXXXXXXXX
Student: 804751267 ------- Compilation Successful -------
Student: 804822142 XXXXXXX Compilation Failed XXXXXXXXXXX
Student: 904876785 ------- Compilation Successful -------
Student: 904948848 ------- Compilation Successful -------
Student: 905015681 ------- Compilation Successful -------
Student: 905156633 XXXXXXX Compilation Failed XXXXXXXXXXX
