1036	519.07
3729	1857.79
4846	2417.41
1057	526.27
3254	1629.78
888	441.63
1344	667.73
4940	2464.25
4677	2341.97
3293	1642.85
715	358.72
4648	2321.12
2501	1253.08
4072	2035.22
2462	1225.07
2916	1463.28
3513	1764.88
3457	1731.73
3848	1931.19
1628	818.10
2029	1014.31
1723	864.86
3219	1620.89
4489	2241.74
3534	1765.74
1815	911.57
3035	1511.21
587	296.21
3527	1766.51
1137	571.76
2834	1420.34
630	319.37
1373	681.86
3754	1887.96
2334	1164.50
3260	1627.25
3496	1747.68
3993	1996.93
1328	668.23
4301	2144.93
4279	2139.72
3631	1811.25
390	195.20
3024	1514.58
3451	1733.07
1671	834.97
2074	1036.31
2707	1358.25
445	221.96
1577	785.53
2297	1148.45
4460	2220.97
3210	1599.88
3127	1562.84
1412	703.27
1936	976.58
385	189.15
917	457.42
926	458.77
1901	955.64
257	127.73
1709	857.46
1246	624.52
1711	860.97
1632	813.78
2633	1315.99
361	178.85
3011	1499.50
4049	2027.49
739	365.82
636	323.27
997	499.03
4408	2202.30
1995	993.10
287	144.20
3464	1740.42
2541	1262.18
2047	1025.26
139	69.66
1054	527.63
1797	901.80
4660	2323.34
4696	2345.00
4522	2258.07
249	124.39
1008	503.12
1616	814.78
617	308.09
4347	2177.32
3852	1929.48
4771	2387.67
2696	1339.26
315	160.75
2352	1181.79
438	220.96
933	461.35
1267	638.51
4476	2237.81
1406	699.62
1096	549.01
