100	48.09
100	52.66
100	53.16
20	10.60
20	12.15
25	13.92
26	12.96
26	15.35
28	13.93
31	19.55
32	15.53
32	16.34
32	17.56
33	19.18
35	15.37
35	18.23
35	18.57
38	18.08
38	21.61
39	19.00
39	20.33
39	21.05
40	19.10
40	19.90
42	21.02
42	22.02
44	19.84
44	20.43
44	21.18
44	21.36
45	19.33
45	22.78
45	24.18
47	21.96
49	22.80
50	25.02
52	25.38
52	25.46
52	27.85
54	25.37
54	26.50
54	28.24
55	27.65
58	28.64
59	27.14
62	28.48
63	29.08
63	30.57
63	31.24
63	33.03
64	32.33
64	38.53
65	32.58
66	29.18
66	34.14
67	34.96
68	36.15
69	32.42
69	33.07
70	33.74
70	35.06
70	35.17
70	35.36
70	36.31
71	38.80
73	35.32
73	39.93
73	41.41
75	35.56
75	41.96
77	36.51
77	38.19
78	38.15
78	41.67
82	41.77
84	43.36
85	42.41
85	43.75
85	44.51
86	40.27
86	43.86
87	44.89
87	47.97
88	41.98
88	44.76
89	42.83
89	47.66
89	48.67
90	46.12
91	45.87
92	41.77
93	51.11
95	46.58
96	45.45
96	47.72
96	48.90
97	48.53
97	49.89
97	52.57
99	51.83
