 ** : Creating object Objects/01-range-20-100.o, from ../../drivers/01-range-20-100.cpp
----------------------------------------

----------------------------------------
 ** : Creating object Objects/02-range-100-5k.o, from ../../drivers/02-range-100-5k.cpp
----------------------------------------

----------------------------------------
 ** : Creating object Objects/03-range-5k-10k.o, from ../../drivers/03-range-5k-10k.cpp
----------------------------------------

----------------------------------------
 ** : Creating object Objects/01-range-20-100.o, from ../../drivers/01-range-20-100.cpp
----------------------------------------

----------------------------------------
 ** : Creating object Objects/02-range-100-5k.o, from ../../drivers/02-range-100-5k.cpp
----------------------------------------

----------------------------------------
 ** : Creating object Objects/03-range-5k-10k.o, from ../../drivers/03-range-5k-10k.cpp
----------------------------------------

----------------------------------------
 ** : Creating binary 01-range-20-100.exe, from Objects/01-range-20-100.o
----------------------------------------

----------------------------------------
 ** : Creating binary 02-range-100-5k.exe, from Objects/02-range-100-5k.o
----------------------------------------

----------------------------------------
 ** : Creating binary 03-range-5k-10k.exe, from Objects/03-range-5k-10k.o
----------------------------------------

----------------------------------------
