 ** : Creating object Objects/01-range-20-100.o, from ../../drivers/01-range-20-100.cpp
----------------------------------------

../../drivers/01-range-20-100.cpp:6:49: fatal error: hw3.h: No such file or directory
 #include "hw3.h"      // average_complexity(...)
                                                 ^
compilation terminated.
----------------------------------------
 ** : Creating object Objects/02-range-100-5k.o, from ../../drivers/02-range-100-5k.cpp
----------------------------------------

../../drivers/02-range-100-5k.cpp:6:49: fatal error: hw3.h: No such file or directory
 #include "hw3.h"      // average_complexity(...)
                                                 ^
compilation terminated.
----------------------------------------
 ** : Creating object Objects/03-range-5k-10k.o, from ../../drivers/03-range-5k-10k.cpp
----------------------------------------

../../drivers/03-range-5k-10k.cpp:6:49: fatal error: hw3.h: No such file or directory
 #include "hw3.h"      // average_complexity(...)
                                                 ^
compilation terminated.
----------------------------------------
 ** : Creating object Objects/01-range-20-100.o, from ../../drivers/01-range-20-100.cpp
----------------------------------------

../../drivers/01-range-20-100.cpp:6:49: fatal error: hw3.h: No such file or directory
 #include "hw3.h"      // average_complexity(...)
                                                 ^
compilation terminated.
----------------------------------------
 ** : Creating object Objects/02-range-100-5k.o, from ../../drivers/02-range-100-5k.cpp
----------------------------------------

../../drivers/02-range-100-5k.cpp:6:49: fatal error: hw3.h: No such file or directory
 #include "hw3.h"      // average_complexity(...)
                                                 ^
compilation terminated.
----------------------------------------
 ** : Creating object Objects/03-range-5k-10k.o, from ../../drivers/03-range-5k-10k.cpp
----------------------------------------

../../drivers/03-range-5k-10k.cpp:6:49: fatal error: hw3.h: No such file or directory
 #include "hw3.h"      // average_complexity(...)
                                                 ^
compilation terminated.
----------------------------------------
