 ** : Creating object Objects/01-range-20-100.o, from ../../drivers/01-range-20-100.cpp
----------------------------------------

In file included from ../../drivers/01-range-20-100.cpp:6:0:
./hw3.h: In function 'double average_complexity(int)':
./hw3.h:23:20: warning: suggest parentheses around assignment used as truth value [-Wparentheses]
   if (random = v[i])
                    ^
----------------------------------------
 ** : Creating object Objects/02-range-100-5k.o, from ../../drivers/02-range-100-5k.cpp
----------------------------------------

In file included from ../../drivers/02-range-100-5k.cpp:6:0:
./hw3.h: In function 'double average_complexity(int)':
./hw3.h:23:20: warning: suggest parentheses around assignment used as truth value [-Wparentheses]
   if (random = v[i])
                    ^
----------------------------------------
 ** : Creating object Objects/03-range-5k-10k.o, from ../../drivers/03-range-5k-10k.cpp
----------------------------------------

In file included from ../../drivers/03-range-5k-10k.cpp:6:0:
./hw3.h: In function 'double average_complexity(int)':
./hw3.h:23:20: warning: suggest parentheses around assignment used as truth value [-Wparentheses]
   if (random = v[i])
                    ^
----------------------------------------
 ** : Creating object Objects/01-range-20-100.o, from ../../drivers/01-range-20-100.cpp
----------------------------------------

In file included from ../../drivers/01-range-20-100.cpp:6:0:
./hw3.h: In function 'double average_complexity(int)':
./hw3.h:23:20: warning: suggest parentheses around assignment used as truth value [-Wparentheses]
   if (random = v[i])
                    ^
----------------------------------------
 ** : Creating object Objects/02-range-100-5k.o, from ../../drivers/02-range-100-5k.cpp
----------------------------------------

In file included from ../../drivers/02-range-100-5k.cpp:6:0:
./hw3.h: In function 'double average_complexity(int)':
./hw3.h:23:20: warning: suggest parentheses around assignment used as truth value [-Wparentheses]
   if (random = v[i])
                    ^
----------------------------------------
 ** : Creating object Objects/03-range-5k-10k.o, from ../../drivers/03-range-5k-10k.cpp
----------------------------------------

In file included from ../../drivers/03-range-5k-10k.cpp:6:0:
./hw3.h: In function 'double average_complexity(int)':
./hw3.h:23:20: warning: suggest parentheses around assignment used as truth value [-Wparentheses]
   if (random = v[i])
                    ^
----------------------------------------
 ** : Creating binary 01-range-20-100.exe, from Objects/01-range-20-100.o
----------------------------------------

----------------------------------------
 ** : Creating binary 02-range-100-5k.exe, from Objects/02-range-100-5k.o
----------------------------------------

----------------------------------------
 ** : Creating binary 03-range-5k-10k.exe, from Objects/03-range-5k-10k.o
----------------------------------------

----------------------------------------
