66	33.07
53	25.97
93	44.36
45	23.00
85	43.98
84	38.96
50	24.06
69	34.31
47	14.00
54	26.96
89	44.22
63	33.13
77	37.85
31	16.93
62	29.86
40	18.00
69	33.83
30	14.17
52	26.19
79	36.95
65	33.20
77	35.89
80	40.08
25	11.95
27	12.84
98	47.85
61	29.85
76	37.18
29	16.00
95	46.90
54	27.25
46	22.13
52	27.21
32	15.00
98	49.14
55	27.20
55	21.00
20	9.03
47	23.01
22	10.93
62	33.04
44	20.02
93	50.20
39	17.00
59	29.96
51	25.03
94	48.07
83	42.14
81	39.12
43	21.08
40	20.06
93	47.79
23	17.00
81	40.77
61	28.99
68	34.84
68	34.82
42	19.95
22	10.02
78	40.29
74	27.00
47	22.97
99	50.01
95	46.03
99	48.05
47	7.00
84	42.08
50	29.00
90	42.78
61	32.02
54	27.15
61	32.89
73	30.97
70	35.95
22	9.00
53	26.05
56	29.00
22	10.37
61	31.07
97	47.08
55	24.92
33	15.72
82	41.20
83	42.57
43	19.90
77	37.61
60	29.00
20	12.00
73	34.86
61	33.03
43	19.85
90	45.89
21	10.09
81	39.74
90	44.00
56	30.11
27	0.00
21	10.98
73	35.04
41	20.27
