

  70 +-+------+--------+-------+--------+--------+--------+-------+------+-+
     +        +        +       +        +        +        +       +        +
     |                                  'Data/01-range-20-100.txt'       ..|
  60 +-+                                                            ..  ..-+
     |                                                          ...  .     |
     |                                                      .      .       |
  50 +-+                                              .  .  .            +-+
     |                                             . . .                   |
     |                                       . .....                       |
  40 +-+                                . ....   .                       +-+
     |                                ... ..                               |
     |                          .   .. .                                   |
     |                      .  ..                                          |
  30 +-+                ...   .                                          +-+
     |             ..  ..                                                  |
     |         .....                                                       |
  20 +-+    .....                                                        +-+
     | ... .                                                               |
     ...      +        +       +        +        +        +       +        +
  10 +-+------+--------+-------+--------+--------+--------+-------+------+-+
     20       30       40      50       60       70       80      90      100

