 ** : Attempting to run: 01-range-20-100.exe
	Completed in:	0:03.02	[hr:]min:sec
 ** : Attempting to run: 02-range-100-5k.exe
	Completed in:	2:34.86	[hr:]min:sec
 ** : Attempting to run: 03-range-5k-10k.exe
	Completed in:	8:16.44	[hr:]min:sec
 ** : Attempting to run: 03-range-5k-10k.exe
	Completed in:	8:17.41	[hr:]min:sec
