 ** : Creating object Objects/01-combined.o, from ../../drivers/01-combined.cpp
----------------------------------------

----------------------------------------
 ** : Creating object Objects/02-mystery.o, from ../../drivers/02-mystery.cpp
----------------------------------------

../../drivers/02-mystery.cpp: In function ‘int main()’:
../../drivers/02-mystery.cpp:35:11: error: no match for ‘operator==’ (operand types are ‘const Time’ and ‘int’)
    if ( b == 5 ) cout << "PASSED\n\t";
           ^
In file included from ../../drivers/02-mystery.cpp:2:0:
./time_class.h:66:10: note: candidate: bool Time::operator==(const Time&) <near match>
     bool operator==( const Time& t );
          ^
./time_class.h:66:10: note:   passing ‘const Time*’ as ‘this’ argument discards qualifiers
In file included from /usr/include/c++/5/iosfwd:40:0,
                 from /usr/include/c++/5/ios:38,
                 from /usr/include/c++/5/ostream:38,
                 from /usr/include/c++/5/iostream:39,
                 from ../../drivers/02-mystery.cpp:1:
/usr/include/c++/5/bits/postypes.h:216:5: note: candidate: template<class _StateT> bool std::operator==(const std::fpos<_StateT>&, const std::fpos<_StateT>&)
     operator==(const fpos<_StateT>& __lhs, const fpos<_StateT>& __rhs)
     ^
/usr/include/c++/5/bits/postypes.h:216:5: note:   template argument deduction/substitution failed:
../../drivers/02-mystery.cpp:35:14: note:   ‘const Time’ is not derived from ‘const std::fpos<_StateT>’
    if ( b == 5 ) cout << "PASSED\n\t";
              ^
In file included from /usr/include/c++/5/bits/stl_algobase.h:64:0,
                 from /usr/include/c++/5/bits/char_traits.h:39,
                 from /usr/include/c++/5/ios:40,
                 from /usr/include/c++/5/ostream:38,
                 from /usr/include/c++/5/iostream:39,
                 from ../../drivers/02-mystery.cpp:1:
/usr/include/c++/5/bits/stl_pair.h:214:5: note: candidate: template<class _T1, class _T2> constexpr bool std::operator==(const std::pair<_T1, _T2>&, const std::pair<_T1, _T2>&)
     operator==(const pair<_T1, _T2>& __x, const pair<_T1, _T2>& __y)
     ^
/usr/include/c++/5/bits/stl_pair.h:214:5: note:   template argument deduction/substitution failed:
../../drivers/02-mystery.cpp:35:14: note:   ‘const Time’ is not derived from ‘const std::pair<_T1, _T2>’
    if ( b == 5 ) cout << "PASSED\n\t";
              ^
In file included from /usr/include/c++/5/bits/stl_algobase.h:67:0,
                 from /usr/include/c++/5/bits/char_traits.h:39,
                 from /usr/include/c++/5/ios:40,
                 from /usr/include/c++/5/ostream:38,
                 from /usr/include/c++/5/iostream:39,
                 from ../../drivers/02-mystery.cpp:1:
/usr/include/c++/5/bits/stl_iterator.h:292:5: note: candidate: template<class _Iterator> bool std::operator==(const std::reverse_iterator<_Iterator>&, const std::reverse_iterator<_Iterator>&)
     operator==(const reverse_iterator<_Iterator>& __x,
     ^
/usr/include/c++/5/bits/stl_iterator.h:292:5: note:   template argument deduction/substitution failed:
../../drivers/02-mystery.cpp:35:14: note:   ‘const Time’ is not derived from ‘const std::reverse_iterator<_Iterator>’
    if ( b == 5 ) cout << "PASSED\n\t";
              ^
In file included from /usr/include/c++/5/bits/stl_algobase.h:67:0,
                 from /usr/include/c++/5/bits/char_traits.h:39,
                 from /usr/include/c++/5/ios:40,
                 from /usr/include/c++/5/ostream:38,
                 from /usr/include/c++/5/iostream:39,
                 from ../../drivers/02-mystery.cpp:1:
/usr/include/c++/5/bits/stl_iterator.h:342:5: note: candidate: template<class _IteratorL, class _IteratorR> bool std::operator==(const std::reverse_iterator<_Iterator>&, const std::reverse_iterator<_IteratorR>&)
     operator==(const reverse_iterator<_IteratorL>& __x,
     ^
/usr/include/c++/5/bits/stl_iterator.h:342:5: note:   template argument deduction/substitution failed:
../../drivers/02-mystery.cpp:35:14: note:   ‘const Time’ is not derived from ‘const std::reverse_iterator<_Iterator>’
    if ( b == 5 ) cout << "PASSED\n\t";
              ^
In file included from /usr/include/c++/5/bits/stl_algobase.h:67:0,
                 from /usr/include/c++/5/bits/char_traits.h:39,
                 from /usr/include/c++/5/ios:40,
                 from /usr/include/c++/5/ostream:38,
                 from /usr/include/c++/5/iostream:39,
                 from ../../drivers/02-mystery.cpp:1:
/usr/include/c++/5/bits/stl_iterator.h:1065:5: note: candidate: template<class _IteratorL, class _IteratorR> bool std::operator==(const std::move_iterator<_Iterator>&, const std::move_iterator<_IteratorR>&)
     operator==(const move_iterator<_IteratorL>& __x,
     ^
/usr/include/c++/5/bits/stl_iterator.h:1065:5: note:   template argument deduction/substitution failed:
../../drivers/02-mystery.cpp:35:14: note:   ‘const Time’ is not derived from ‘const std::move_iterator<_Iterator>’
    if ( b == 5 ) cout << "PASSED\n\t";
              ^
In file included from /usr/include/c++/5/bits/stl_algobase.h:67:0,
                 from /usr/include/c++/5/bits/char_traits.h:39,
                 from /usr/include/c++/5/ios:40,
                 from /usr/include/c++/5/ostream:38,
                 from /usr/include/c++/5/iostream:39,
                 from ../../drivers/02-mystery.cpp:1:
/usr/include/c++/5/bits/stl_iterator.h:1071:5: note: candidate: template<class _Iterator> bool std::operator==(const std::move_iterator<_Iterator>&, const std::move_iterator<_Iterator>&)
     operator==(const move_iterator<_Iterator>& __x,
     ^
/usr/include/c++/5/bits/stl_iterator.h:1071:5: note:   template argument deduction/substitution failed:
../../drivers/02-mystery.cpp:35:14: note:   ‘const Time’ is not derived from ‘const std::move_iterator<_Iterator>’
    if ( b == 5 ) cout << "PASSED\n\t";
              ^
In file included from /usr/include/c++/5/string:41:0,
                 from /usr/include/c++/5/bits/locale_classes.h:40,
                 from /usr/include/c++/5/bits/ios_base.h:41,
                 from /usr/include/c++/5/ios:42,
                 from /usr/include/c++/5/ostream:38,
                 from /usr/include/c++/5/iostream:39,
                 from ../../drivers/02-mystery.cpp:1:
/usr/include/c++/5/bits/allocator.h:128:5: note: candidate: template<class _T1, class _T2> bool std::operator==(const std::allocator<_CharT>&, const std::allocator<_T2>&)
     operator==(const allocator<_T1>&, const allocator<_T2>&)
     ^
/usr/include/c++/5/bits/allocator.h:128:5: note:   template argument deduction/substitution failed:
../../drivers/02-mystery.cpp:35:14: note:   ‘const Time’ is not derived from ‘const std::allocator<_CharT>’
    if ( b == 5 ) cout << "PASSED\n\t";
              ^
In file included from /usr/include/c++/5/string:41:0,
                 from /usr/include/c++/5/bits/locale_classes.h:40,
                 from /usr/include/c++/5/bits/ios_base.h:41,
                 from /usr/include/c++/5/ios:42,
                 from /usr/include/c++/5/ostream:38,
                 from /usr/include/c++/5/iostream:39,
                 from ../../drivers/02-mystery.cpp:1:
/usr/include/c++/5/bits/allocator.h:134:5: note: candidate: template<class _Tp> bool std::operator==(const std::allocator<_CharT>&, const std::allocator<_CharT>&)
     operator==(const allocator<_Tp>&, const allocator<_Tp>&)
     ^
/usr/include/c++/5/bits/allocator.h:134:5: note:   template argument deduction/substitution failed:
../../drivers/02-mystery.cpp:35:14: note:   ‘const Time’ is not derived from ‘const std::allocator<_CharT>’
    if ( b == 5 ) cout << "PASSED\n\t";
              ^
In file included from /usr/include/c++/5/string:52:0,
                 from /usr/include/c++/5/bits/locale_classes.h:40,
                 from /usr/include/c++/5/bits/ios_base.h:41,
                 from /usr/include/c++/5/ios:42,
                 from /usr/include/c++/5/ostream:38,
                 from /usr/include/c++/5/iostream:39,
                 from ../../drivers/02-mystery.cpp:1:
/usr/include/c++/5/bits/basic_string.h:4904:5: note: candidate: template<class _CharT, class _Traits, class _Alloc> bool std::operator==(const std::__cxx11::basic_string<_CharT, _Traits, _Alloc>&, const std::__cxx11::basic_string<_CharT, _Traits, _Alloc>&)
     operator==(const basic_string<_CharT, _Traits, _Alloc>& __lhs,
     ^
/usr/include/c++/5/bits/basic_string.h:4904:5: note:   template argument deduction/substitution failed:
../../drivers/02-mystery.cpp:35:14: note:   ‘const Time’ is not derived from ‘const std::__cxx11::basic_string<_CharT, _Traits, _Alloc>’
    if ( b == 5 ) cout << "PASSED\n\t";
              ^
In file included from /usr/include/c++/5/string:52:0,
                 from /usr/include/c++/5/bits/locale_classes.h:40,
                 from /usr/include/c++/5/bits/ios_base.h:41,
                 from /usr/include/c++/5/ios:42,
                 from /usr/include/c++/5/ostream:38,
                 from /usr/include/c++/5/iostream:39,
                 from ../../drivers/02-mystery.cpp:1:
/usr/include/c++/5/bits/basic_string.h:4911:5: note: candidate: template<class _CharT> typename __gnu_cxx::__enable_if<std::__is_char<_Tp>::__value, bool>::__type std::operator==(const std::__cxx11::basic_string<_CharT>&, const std::__cxx11::basic_string<_CharT>&)
     operator==(const basic_string<_CharT>& __lhs,
     ^
/usr/include/c++/5/bits/basic_string.h:4911:5: note:   template argument deduction/substitution failed:
../../drivers/02-mystery.cpp:35:14: note:   ‘const Time’ is not derived from ‘const std::__cxx11::basic_string<_CharT>’
    if ( b == 5 ) cout << "PASSED\n\t";
              ^
In file included from /usr/include/c++/5/string:52:0,
                 from /usr/include/c++/5/bits/locale_classes.h:40,
                 from /usr/include/c++/5/bits/ios_base.h:41,
                 from /usr/include/c++/5/ios:42,
                 from /usr/include/c++/5/ostream:38,
                 from /usr/include/c++/5/iostream:39,
                 from ../../drivers/02-mystery.cpp:1:
/usr/include/c++/5/bits/basic_string.h:4925:5: note: candidate: template<class _CharT, class _Traits, class _Alloc> bool std::operator==(const _CharT*, const std::__cxx11::basic_string<_CharT, _Traits, _Alloc>&)
     operator==(const _CharT* __lhs,
     ^
/usr/include/c++/5/bits/basic_string.h:4925:5: note:   template argument deduction/substitution failed:
../../drivers/02-mystery.cpp:35:14: note:   mismatched types ‘const _CharT*’ and ‘Time’
    if ( b == 5 ) cout << "PASSED\n\t";
              ^
In file included from /usr/include/c++/5/string:52:0,
                 from /usr/include/c++/5/bits/locale_classes.h:40,
                 from /usr/include/c++/5/bits/ios_base.h:41,
                 from /usr/include/c++/5/ios:42,
                 from /usr/include/c++/5/ostream:38,
                 from /usr/include/c++/5/iostream:39,
                 from ../../drivers/02-mystery.cpp:1:
/usr/include/c++/5/bits/basic_string.h:4937:5: note: candidate: template<class _CharT, class _Traits, class _Alloc> bool std::operator==(const std::__cxx11::basic_string<_CharT, _Traits, _Alloc>&, const _CharT*)
     operator==(const basic_string<_CharT, _Traits, _Alloc>& __lhs,
     ^
/usr/include/c++/5/bits/basic_string.h:4937:5: note:   template argument deduction/substitution failed:
../../drivers/02-mystery.cpp:35:14: note:   ‘const Time’ is not derived from ‘const std::__cxx11::basic_string<_CharT, _Traits, _Alloc>’
    if ( b == 5 ) cout << "PASSED\n\t";
              ^
In file included from /usr/include/c++/5/bits/ios_base.h:46:0,
                 from /usr/include/c++/5/ios:42,
                 from /usr/include/c++/5/ostream:38,
                 from /usr/include/c++/5/iostream:39,
                 from ../../drivers/02-mystery.cpp:1:
/usr/include/c++/5/system_error:284:3: note: candidate: bool std::operator==(const std::error_code&, const std::error_code&)
   operator==(const error_code& __lhs, const error_code& __rhs) noexcept
   ^
/usr/include/c++/5/system_error:284:3: note:   no known conversion for argument 1 from ‘const Time’ to ‘const std::error_code&’
/usr/include/c++/5/system_error:289:3: note: candidate: bool std::operator==(const std::error_code&, const std::error_condition&)
   operator==(const error_code& __lhs, const error_condition& __rhs) noexcept
   ^
/usr/include/c++/5/system_error:289:3: note:   no known conversion for argument 1 from ‘const Time’ to ‘const std::error_code&’
/usr/include/c++/5/system_error:296:3: note: candidate: bool std::operator==(const std::error_condition&, const std::error_code&)
   operator==(const error_condition& __lhs, const error_code& __rhs) noexcept
   ^
/usr/include/c++/5/system_error:296:3: note:   no known conversion for argument 1 from ‘const Time’ to ‘const std::error_condition&’
/usr/include/c++/5/system_error:303:3: note: candidate: bool std::operator==(const std::error_condition&, const std::error_condition&)
   operator==(const error_condition& __lhs,
   ^
/usr/include/c++/5/system_error:303:3: note:   no known conversion for argument 1 from ‘const Time’ to ‘const std::error_condition&’
In file included from /usr/include/c++/5/bits/locale_facets.h:48:0,
                 from /usr/include/c++/5/bits/basic_ios.h:37,
                 from /usr/include/c++/5/ios:44,
                 from /usr/include/c++/5/ostream:38,
                 from /usr/include/c++/5/iostream:39,
                 from ../../drivers/02-mystery.cpp:1:
/usr/include/c++/5/bits/streambuf_iterator.h:204:5: note: candidate: template<class _CharT, class _Traits> bool std::operator==(const std::istreambuf_iterator<_CharT, _Traits>&, const std::istreambuf_iterator<_CharT, _Traits>&)
     operator==(const istreambuf_iterator<_CharT, _Traits>& __a,
     ^
/usr/include/c++/5/bits/streambuf_iterator.h:204:5: note:   template argument deduction/substitution failed:
../../drivers/02-mystery.cpp:35:14: note:   ‘const Time’ is not derived from ‘const std::istreambuf_iterator<_CharT, _Traits>’
    if ( b == 5 ) cout << "PASSED\n\t";
              ^
../../drivers/02-mystery.cpp:39:11: error: no match for ‘operator!=’ (operand types are ‘int’ and ‘Time’)
    if ( 5 != a ) cout << "PASSED\n\t";
           ^
In file included from /usr/include/c++/5/iosfwd:40:0,
                 from /usr/include/c++/5/ios:38,
                 from /usr/include/c++/5/ostream:38,
                 from /usr/include/c++/5/iostream:39,
                 from ../../drivers/02-mystery.cpp:1:
/usr/include/c++/5/bits/postypes.h:221:5: note: candidate: template<class _StateT> bool std::operator!=(const std::fpos<_StateT>&, const std::fpos<_StateT>&)
     operator!=(const fpos<_StateT>& __lhs, const fpos<_StateT>& __rhs)
     ^
/usr/include/c++/5/bits/postypes.h:221:5: note:   template argument deduction/substitution failed:
../../drivers/02-mystery.cpp:39:14: note:   mismatched types ‘const std::fpos<_StateT>’ and ‘int’
    if ( 5 != a ) cout << "PASSED\n\t";
              ^
In file included from /usr/include/c++/5/bits/stl_algobase.h:64:0,
                 from /usr/include/c++/5/bits/char_traits.h:39,
                 from /usr/include/c++/5/ios:40,
                 from /usr/include/c++/5/ostream:38,
                 from /usr/include/c++/5/iostream:39,
                 from ../../drivers/02-mystery.cpp:1:
/usr/include/c++/5/bits/stl_pair.h:227:5: note: candidate: template<class _T1, class _T2> constexpr bool std::operator!=(const std::pair<_T1, _T2>&, const std::pair<_T1, _T2>&)
     operator!=(const pair<_T1, _T2>& __x, const pair<_T1, _T2>& __y)
     ^
/usr/include/c++/5/bits/stl_pair.h:227:5: note:   template argument deduction/substitution failed:
../../drivers/02-mystery.cpp:39:14: note:   mismatched types ‘const std::pair<_T1, _T2>’ and ‘int’
    if ( 5 != a ) cout << "PASSED\n\t";
              ^
In file included from /usr/include/c++/5/bits/stl_algobase.h:67:0,
                 from /usr/include/c++/5/bits/char_traits.h:39,
                 from /usr/include/c++/5/ios:40,
                 from /usr/include/c++/5/ostream:38,
                 from /usr/include/c++/5/iostream:39,
                 from ../../drivers/02-mystery.cpp:1:
/usr/include/c++/5/bits/stl_iterator.h:304:5: note: candidate: template<class _Iterator> bool std::operator!=(const std::reverse_iterator<_Iterator>&, const std::reverse_iterator<_Iterator>&)
     operator!=(const reverse_iterator<_Iterator>& __x,
     ^
/usr/include/c++/5/bits/stl_iterator.h:304:5: note:   template argument deduction/substitution failed:
../../drivers/02-mystery.cpp:39:14: note:   mismatched types ‘const std::reverse_iterator<_Iterator>’ and ‘int’
    if ( 5 != a ) cout << "PASSED\n\t";
              ^
In file included from /usr/include/c++/5/bits/stl_algobase.h:67:0,
                 from /usr/include/c++/5/bits/char_traits.h:39,
                 from /usr/include/c++/5/ios:40,
                 from /usr/include/c++/5/ostream:38,
                 from /usr/include/c++/5/iostream:39,
                 from ../../drivers/02-mystery.cpp:1:
/usr/include/c++/5/bits/stl_iterator.h:354:5: note: candidate: template<class _IteratorL, class _IteratorR> bool std::operator!=(const std::reverse_iterator<_Iterator>&, const std::reverse_iterator<_IteratorR>&)
     operator!=(const reverse_iterator<_IteratorL>& __x,
     ^
/usr/include/c++/5/bits/stl_iterator.h:354:5: note:   template argument deduction/substitution failed:
../../drivers/02-mystery.cpp:39:14: note:   mismatched types ‘const std::reverse_iterator<_Iterator>’ and ‘int’
    if ( 5 != a ) cout << "PASSED\n\t";
              ^
In file included from /usr/include/c++/5/bits/stl_algobase.h:67:0,
                 from /usr/include/c++/5/bits/char_traits.h:39,
                 from /usr/include/c++/5/ios:40,
                 from /usr/include/c++/5/ostream:38,
                 from /usr/include/c++/5/iostream:39,
                 from ../../drivers/02-mystery.cpp:1:
/usr/include/c++/5/bits/stl_iterator.h:1077:5: note: candidate: template<class _IteratorL, class _IteratorR> bool std::operator!=(const std::move_iterator<_Iterator>&, const std::move_iterator<_IteratorR>&)
     operator!=(const move_iterator<_IteratorL>& __x,
     ^
/usr/include/c++/5/bits/stl_iterator.h:1077:5: note:   template argument deduction/substitution failed:
../../drivers/02-mystery.cpp:39:14: note:   mismatched types ‘const std::move_iterator<_Iterator>’ and ‘int’
    if ( 5 != a ) cout << "PASSED\n\t";
              ^
In file included from /usr/include/c++/5/bits/stl_algobase.h:67:0,
                 from /usr/include/c++/5/bits/char_traits.h:39,
                 from /usr/include/c++/5/ios:40,
                 from /usr/include/c++/5/ostream:38,
                 from /usr/include/c++/5/iostream:39,
                 from ../../drivers/02-mystery.cpp:1:
/usr/include/c++/5/bits/stl_iterator.h:1083:5: note: candidate: template<class _Iterator> bool std::operator!=(const std::move_iterator<_Iterator>&, const std::move_iterator<_Iterator>&)
     operator!=(const move_iterator<_Iterator>& __x,
     ^
/usr/include/c++/5/bits/stl_iterator.h:1083:5: note:   template argument deduction/substitution failed:
../../drivers/02-mystery.cpp:39:14: note:   mismatched types ‘const std::move_iterator<_Iterator>’ and ‘int’
    if ( 5 != a ) cout << "PASSED\n\t";
              ^
In file included from /usr/include/c++/5/string:41:0,
                 from /usr/include/c++/5/bits/locale_classes.h:40,
                 from /usr/include/c++/5/bits/ios_base.h:41,
                 from /usr/include/c++/5/ios:42,
                 from /usr/include/c++/5/ostream:38,
                 from /usr/include/c++/5/iostream:39,
                 from ../../drivers/02-mystery.cpp:1:
/usr/include/c++/5/bits/allocator.h:140:5: note: candidate: template<class _T1, class _T2> bool std::operator!=(const std::allocator<_CharT>&, const std::allocator<_T2>&)
     operator!=(const allocator<_T1>&, const allocator<_T2>&)
     ^
/usr/include/c++/5/bits/allocator.h:140:5: note:   template argument deduction/substitution failed:
../../drivers/02-mystery.cpp:39:14: note:   mismatched types ‘const std::allocator<_CharT>’ and ‘int’
    if ( 5 != a ) cout << "PASSED\n\t";
              ^
In file included from /usr/include/c++/5/string:41:0,
                 from /usr/include/c++/5/bits/locale_classes.h:40,
                 from /usr/include/c++/5/bits/ios_base.h:41,
                 from /usr/include/c++/5/ios:42,
                 from /usr/include/c++/5/ostream:38,
                 from /usr/include/c++/5/iostream:39,
                 from ../../drivers/02-mystery.cpp:1:
/usr/include/c++/5/bits/allocator.h:146:5: note: candidate: template<class _Tp> bool std::operator!=(const std::allocator<_CharT>&, const std::allocator<_CharT>&)
     operator!=(const allocator<_Tp>&, const allocator<_Tp>&)
     ^
/usr/include/c++/5/bits/allocator.h:146:5: note:   template argument deduction/substitution failed:
../../drivers/02-mystery.cpp:39:14: note:   mismatched types ‘const std::allocator<_CharT>’ and ‘int’
    if ( 5 != a ) cout << "PASSED\n\t";
              ^
In file included from /usr/include/c++/5/string:52:0,
                 from /usr/include/c++/5/bits/locale_classes.h:40,
                 from /usr/include/c++/5/bits/ios_base.h:41,
                 from /usr/include/c++/5/ios:42,
                 from /usr/include/c++/5/ostream:38,
                 from /usr/include/c++/5/iostream:39,
                 from ../../drivers/02-mystery.cpp:1:
/usr/include/c++/5/bits/basic_string.h:4950:5: note: candidate: template<class _CharT, class _Traits, class _Alloc> bool std::operator!=(const std::__cxx11::basic_string<_CharT, _Traits, _Alloc>&, const std::__cxx11::basic_string<_CharT, _Traits, _Alloc>&)
     operator!=(const basic_string<_CharT, _Traits, _Alloc>& __lhs,
     ^
/usr/include/c++/5/bits/basic_string.h:4950:5: note:   template argument deduction/substitution failed:
../../drivers/02-mystery.cpp:39:14: note:   mismatched types ‘const std::__cxx11::basic_string<_CharT, _Traits, _Alloc>’ and ‘int’
    if ( 5 != a ) cout << "PASSED\n\t";
              ^
In file included from /usr/include/c++/5/string:52:0,
                 from /usr/include/c++/5/bits/locale_classes.h:40,
                 from /usr/include/c++/5/bits/ios_base.h:41,
                 from /usr/include/c++/5/ios:42,
                 from /usr/include/c++/5/ostream:38,
                 from /usr/include/c++/5/iostream:39,
                 from ../../drivers/02-mystery.cpp:1:
/usr/include/c++/5/bits/basic_string.h:4962:5: note: candidate: template<class _CharT, class _Traits, class _Alloc> bool std::operator!=(const _CharT*, const std::__cxx11::basic_string<_CharT, _Traits, _Alloc>&)
     operator!=(const _CharT* __lhs,
     ^
/usr/include/c++/5/bits/basic_string.h:4962:5: note:   template argument deduction/substitution failed:
../../drivers/02-mystery.cpp:39:14: note:   mismatched types ‘const _CharT*’ and ‘int’
    if ( 5 != a ) cout << "PASSED\n\t";
              ^
In file included from /usr/include/c++/5/string:52:0,
                 from /usr/include/c++/5/bits/locale_classes.h:40,
                 from /usr/include/c++/5/bits/ios_base.h:41,
                 from /usr/include/c++/5/ios:42,
                 from /usr/include/c++/5/ostream:38,
                 from /usr/include/c++/5/iostream:39,
                 from ../../drivers/02-mystery.cpp:1:
/usr/include/c++/5/bits/basic_string.h:4974:5: note: candidate: template<class _CharT, class _Traits, class _Alloc> bool std::operator!=(const std::__cxx11::basic_string<_CharT, _Traits, _Alloc>&, const _CharT*)
     operator!=(const basic_string<_CharT, _Traits, _Alloc>& __lhs,
     ^
/usr/include/c++/5/bits/basic_string.h:4974:5: note:   template argument deduction/substitution failed:
../../drivers/02-mystery.cpp:39:14: note:   mismatched types ‘const std::__cxx11::basic_string<_CharT, _Traits, _Alloc>’ and ‘int’
    if ( 5 != a ) cout << "PASSED\n\t";
              ^
In file included from /usr/include/c++/5/bits/ios_base.h:46:0,
                 from /usr/include/c++/5/ios:42,
                 from /usr/include/c++/5/ostream:38,
                 from /usr/include/c++/5/iostream:39,
                 from ../../drivers/02-mystery.cpp:1:
/usr/include/c++/5/system_error:311:3: note: candidate: bool std::operator!=(const std::error_code&, const std::error_code&)
   operator!=(const error_code& __lhs, const error_code& __rhs) noexcept
   ^
/usr/include/c++/5/system_error:311:3: note:   no known conversion for argument 1 from ‘int’ to ‘const std::error_code&’
/usr/include/c++/5/system_error:315:3: note: candidate: bool std::operator!=(const std::error_code&, const std::error_condition&)
   operator!=(const error_code& __lhs, const error_condition& __rhs) noexcept
   ^
/usr/include/c++/5/system_error:315:3: note:   no known conversion for argument 1 from ‘int’ to ‘const std::error_code&’
/usr/include/c++/5/system_error:319:3: note: candidate: bool std::operator!=(const std::error_condition&, const std::error_code&)
   operator!=(const error_condition& __lhs, const error_code& __rhs) noexcept
   ^
/usr/include/c++/5/system_error:319:3: note:   no known conversion for argument 1 from ‘int’ to ‘const std::error_condition&’
/usr/include/c++/5/system_error:323:3: note: candidate: bool std::operator!=(const std::error_condition&, const std::error_condition&)
   operator!=(const error_condition& __lhs,
   ^
/usr/include/c++/5/system_error:323:3: note:   no known conversion for argument 1 from ‘int’ to ‘const std::error_condition&’
In file included from /usr/include/c++/5/bits/locale_facets.h:48:0,
                 from /usr/include/c++/5/bits/basic_ios.h:37,
                 from /usr/include/c++/5/ios:44,
                 from /usr/include/c++/5/ostream:38,
                 from /usr/include/c++/5/iostream:39,
                 from ../../drivers/02-mystery.cpp:1:
/usr/include/c++/5/bits/streambuf_iterator.h:210:5: note: candidate: template<class _CharT, class _Traits> bool std::operator!=(const std::istreambuf_iterator<_CharT, _Traits>&, const std::istreambuf_iterator<_CharT, _Traits>&)
     operator!=(const istreambuf_iterator<_CharT, _Traits>& __a,
     ^
/usr/include/c++/5/bits/streambuf_iterator.h:210:5: note:   template argument deduction/substitution failed:
../../drivers/02-mystery.cpp:39:14: note:   mismatched types ‘const std::istreambuf_iterator<_CharT, _Traits>’ and ‘int’
    if ( 5 != a ) cout << "PASSED\n\t";
              ^
../../drivers/02-mystery.cpp:43:11: error: no match for ‘operator==’ (operand types are ‘int’ and ‘const Time’)
    if ( 5 == b ) cout << "PASSED\n";
           ^
In file included from /usr/include/c++/5/iosfwd:40:0,
                 from /usr/include/c++/5/ios:38,
                 from /usr/include/c++/5/ostream:38,
                 from /usr/include/c++/5/iostream:39,
                 from ../../drivers/02-mystery.cpp:1:
/usr/include/c++/5/bits/postypes.h:216:5: note: candidate: template<class _StateT> bool std::operator==(const std::fpos<_StateT>&, const std::fpos<_StateT>&)
     operator==(const fpos<_StateT>& __lhs, const fpos<_StateT>& __rhs)
     ^
/usr/include/c++/5/bits/postypes.h:216:5: note:   template argument deduction/substitution failed:
../../drivers/02-mystery.cpp:43:14: note:   mismatched types ‘const std::fpos<_StateT>’ and ‘int’
    if ( 5 == b ) cout << "PASSED\n";
              ^
In file included from /usr/include/c++/5/bits/stl_algobase.h:64:0,
                 from /usr/include/c++/5/bits/char_traits.h:39,
                 from /usr/include/c++/5/ios:40,
                 from /usr/include/c++/5/ostream:38,
                 from /usr/include/c++/5/iostream:39,
                 from ../../drivers/02-mystery.cpp:1:
/usr/include/c++/5/bits/stl_pair.h:214:5: note: candidate: template<class _T1, class _T2> constexpr bool std::operator==(const std::pair<_T1, _T2>&, const std::pair<_T1, _T2>&)
     operator==(const pair<_T1, _T2>& __x, const pair<_T1, _T2>& __y)
     ^
/usr/include/c++/5/bits/stl_pair.h:214:5: note:   template argument deduction/substitution failed:
../../drivers/02-mystery.cpp:43:14: note:   mismatched types ‘const std::pair<_T1, _T2>’ and ‘int’
    if ( 5 == b ) cout << "PASSED\n";
              ^
In file included from /usr/include/c++/5/bits/stl_algobase.h:67:0,
                 from /usr/include/c++/5/bits/char_traits.h:39,
                 from /usr/include/c++/5/ios:40,
                 from /usr/include/c++/5/ostream:38,
                 from /usr/include/c++/5/iostream:39,
                 from ../../drivers/02-mystery.cpp:1:
/usr/include/c++/5/bits/stl_iterator.h:292:5: note: candidate: template<class _Iterator> bool std::operator==(const std::reverse_iterator<_Iterator>&, const std::reverse_iterator<_Iterator>&)
     operator==(const reverse_iterator<_Iterator>& __x,
     ^
/usr/include/c++/5/bits/stl_iterator.h:292:5: note:   template argument deduction/substitution failed:
../../drivers/02-mystery.cpp:43:14: note:   mismatched types ‘const std::reverse_iterator<_Iterator>’ and ‘int’
    if ( 5 == b ) cout << "PASSED\n";
              ^
In file included from /usr/include/c++/5/bits/stl_algobase.h:67:0,
                 from /usr/include/c++/5/bits/char_traits.h:39,
                 from /usr/include/c++/5/ios:40,
                 from /usr/include/c++/5/ostream:38,
                 from /usr/include/c++/5/iostream:39,
                 from ../../drivers/02-mystery.cpp:1:
/usr/include/c++/5/bits/stl_iterator.h:342:5: note: candidate: template<class _IteratorL, class _IteratorR> bool std::operator==(const std::reverse_iterator<_Iterator>&, const std::reverse_iterator<_IteratorR>&)
     operator==(const reverse_iterator<_IteratorL>& __x,
     ^
/usr/include/c++/5/bits/stl_iterator.h:342:5: note:   template argument deduction/substitution failed:
../../drivers/02-mystery.cpp:43:14: note:   mismatched types ‘const std::reverse_iterator<_Iterator>’ and ‘int’
    if ( 5 == b ) cout << "PASSED\n";
              ^
In file included from /usr/include/c++/5/bits/stl_algobase.h:67:0,
                 from /usr/include/c++/5/bits/char_traits.h:39,
                 from /usr/include/c++/5/ios:40,
                 from /usr/include/c++/5/ostream:38,
                 from /usr/include/c++/5/iostream:39,
                 from ../../drivers/02-mystery.cpp:1:
/usr/include/c++/5/bits/stl_iterator.h:1065:5: note: candidate: template<class _IteratorL, class _IteratorR> bool std::operator==(const std::move_iterator<_Iterator>&, const std::move_iterator<_IteratorR>&)
     operator==(const move_iterator<_IteratorL>& __x,
     ^
/usr/include/c++/5/bits/stl_iterator.h:1065:5: note:   template argument deduction/substitution failed:
../../drivers/02-mystery.cpp:43:14: note:   mismatched types ‘const std::move_iterator<_Iterator>’ and ‘int’
    if ( 5 == b ) cout << "PASSED\n";
              ^
In file included from /usr/include/c++/5/bits/stl_algobase.h:67:0,
                 from /usr/include/c++/5/bits/char_traits.h:39,
                 from /usr/include/c++/5/ios:40,
                 from /usr/include/c++/5/ostream:38,
                 from /usr/include/c++/5/iostream:39,
                 from ../../drivers/02-mystery.cpp:1:
/usr/include/c++/5/bits/stl_iterator.h:1071:5: note: candidate: template<class _Iterator> bool std::operator==(const std::move_iterator<_Iterator>&, const std::move_iterator<_Iterator>&)
     operator==(const move_iterator<_Iterator>& __x,
     ^
/usr/include/c++/5/bits/stl_iterator.h:1071:5: note:   template argument deduction/substitution failed:
../../drivers/02-mystery.cpp:43:14: note:   mismatched types ‘const std::move_iterator<_Iterator>’ and ‘int’
    if ( 5 == b ) cout << "PASSED\n";
              ^
In file included from /usr/include/c++/5/string:41:0,
                 from /usr/include/c++/5/bits/locale_classes.h:40,
                 from /usr/include/c++/5/bits/ios_base.h:41,
                 from /usr/include/c++/5/ios:42,
                 from /usr/include/c++/5/ostream:38,
                 from /usr/include/c++/5/iostream:39,
                 from ../../drivers/02-mystery.cpp:1:
/usr/include/c++/5/bits/allocator.h:128:5: note: candidate: template<class _T1, class _T2> bool std::operator==(const std::allocator<_CharT>&, const std::allocator<_T2>&)
     operator==(const allocator<_T1>&, const allocator<_T2>&)
     ^
/usr/include/c++/5/bits/allocator.h:128:5: note:   template argument deduction/substitution failed:
../../drivers/02-mystery.cpp:43:14: note:   mismatched types ‘const std::allocator<_CharT>’ and ‘int’
    if ( 5 == b ) cout << "PASSED\n";
              ^
In file included from /usr/include/c++/5/string:41:0,
                 from /usr/include/c++/5/bits/locale_classes.h:40,
                 from /usr/include/c++/5/bits/ios_base.h:41,
                 from /usr/include/c++/5/ios:42,
                 from /usr/include/c++/5/ostream:38,
                 from /usr/include/c++/5/iostream:39,
                 from ../../drivers/02-mystery.cpp:1:
/usr/include/c++/5/bits/allocator.h:134:5: note: candidate: template<class _Tp> bool std::operator==(const std::allocator<_CharT>&, const std::allocator<_CharT>&)
     operator==(const allocator<_Tp>&, const allocator<_Tp>&)
     ^
/usr/include/c++/5/bits/allocator.h:134:5: note:   template argument deduction/substitution failed:
../../drivers/02-mystery.cpp:43:14: note:   mismatched types ‘const std::allocator<_CharT>’ and ‘int’
    if ( 5 == b ) cout << "PASSED\n";
              ^
In file included from /usr/include/c++/5/string:52:0,
                 from /usr/include/c++/5/bits/locale_classes.h:40,
                 from /usr/include/c++/5/bits/ios_base.h:41,
                 from /usr/include/c++/5/ios:42,
                 from /usr/include/c++/5/ostream:38,
                 from /usr/include/c++/5/iostream:39,
                 from ../../drivers/02-mystery.cpp:1:
/usr/include/c++/5/bits/basic_string.h:4904:5: note: candidate: template<class _CharT, class _Traits, class _Alloc> bool std::operator==(const std::__cxx11::basic_string<_CharT, _Traits, _Alloc>&, const std::__cxx11::basic_string<_CharT, _Traits, _Alloc>&)
     operator==(const basic_string<_CharT, _Traits, _Alloc>& __lhs,
     ^
/usr/include/c++/5/bits/basic_string.h:4904:5: note:   template argument deduction/substitution failed:
../../drivers/02-mystery.cpp:43:14: note:   mismatched types ‘const std::__cxx11::basic_string<_CharT, _Traits, _Alloc>’ and ‘int’
    if ( 5 == b ) cout << "PASSED\n";
              ^
In file included from /usr/include/c++/5/string:52:0,
                 from /usr/include/c++/5/bits/locale_classes.h:40,
                 from /usr/include/c++/5/bits/ios_base.h:41,
                 from /usr/include/c++/5/ios:42,
                 from /usr/include/c++/5/ostream:38,
                 from /usr/include/c++/5/iostream:39,
                 from ../../drivers/02-mystery.cpp:1:
/usr/include/c++/5/bits/basic_string.h:4911:5: note: candidate: template<class _CharT> typename __gnu_cxx::__enable_if<std::__is_char<_Tp>::__value, bool>::__type std::operator==(const std::__cxx11::basic_string<_CharT>&, const std::__cxx11::basic_string<_CharT>&)
     operator==(const basic_string<_CharT>& __lhs,
     ^
/usr/include/c++/5/bits/basic_string.h:4911:5: note:   template argument deduction/substitution failed:
../../drivers/02-mystery.cpp:43:14: note:   mismatched types ‘const std::__cxx11::basic_string<_CharT>’ and ‘int’
    if ( 5 == b ) cout << "PASSED\n";
              ^
In file included from /usr/include/c++/5/string:52:0,
                 from /usr/include/c++/5/bits/locale_classes.h:40,
                 from /usr/include/c++/5/bits/ios_base.h:41,
                 from /usr/include/c++/5/ios:42,
                 from /usr/include/c++/5/ostream:38,
                 from /usr/include/c++/5/iostream:39,
                 from ../../drivers/02-mystery.cpp:1:
/usr/include/c++/5/bits/basic_string.h:4925:5: note: candidate: template<class _CharT, class _Traits, class _Alloc> bool std::operator==(const _CharT*, const std::__cxx11::basic_string<_CharT, _Traits, _Alloc>&)
     operator==(const _CharT* __lhs,
     ^
/usr/include/c++/5/bits/basic_string.h:4925:5: note:   template argument deduction/substitution failed:
../../drivers/02-mystery.cpp:43:14: note:   mismatched types ‘const _CharT*’ and ‘int’
    if ( 5 == b ) cout << "PASSED\n";
              ^
In file included from /usr/include/c++/5/string:52:0,
                 from /usr/include/c++/5/bits/locale_classes.h:40,
                 from /usr/include/c++/5/bits/ios_base.h:41,
                 from /usr/include/c++/5/ios:42,
                 from /usr/include/c++/5/ostream:38,
                 from /usr/include/c++/5/iostream:39,
                 from ../../drivers/02-mystery.cpp:1:
/usr/include/c++/5/bits/basic_string.h:4937:5: note: candidate: template<class _CharT, class _Traits, class _Alloc> bool std::operator==(const std::__cxx11::basic_string<_CharT, _Traits, _Alloc>&, const _CharT*)
     operator==(const basic_string<_CharT, _Traits, _Alloc>& __lhs,
     ^
/usr/include/c++/5/bits/basic_string.h:4937:5: note:   template argument deduction/substitution failed:
../../drivers/02-mystery.cpp:43:14: note:   mismatched types ‘const std::__cxx11::basic_string<_CharT, _Traits, _Alloc>’ and ‘int’
    if ( 5 == b ) cout << "PASSED\n";
              ^
In file included from /usr/include/c++/5/bits/ios_base.h:46:0,
                 from /usr/include/c++/5/ios:42,
                 from /usr/include/c++/5/ostream:38,
                 from /usr/include/c++/5/iostream:39,
                 from ../../drivers/02-mystery.cpp:1:
/usr/include/c++/5/system_error:284:3: note: candidate: bool std::operator==(const std::error_code&, const std::error_code&)
   operator==(const error_code& __lhs, const error_code& __rhs) noexcept
   ^
/usr/include/c++/5/system_error:284:3: note:   no known conversion for argument 1 from ‘int’ to ‘const std::error_code&’
/usr/include/c++/5/system_error:289:3: note: candidate: bool std::operator==(const std::error_code&, const std::error_condition&)
   operator==(const error_code& __lhs, const error_condition& __rhs) noexcept
   ^
/usr/include/c++/5/system_error:289:3: note:   no known conversion for argument 1 from ‘int’ to ‘const std::error_code&’
/usr/include/c++/5/system_error:296:3: note: candidate: bool std::operator==(const std::error_condition&, const std::error_code&)
   operator==(const error_condition& __lhs, const error_code& __rhs) noexcept
   ^
/usr/include/c++/5/system_error:296:3: note:   no known conversion for argument 1 from ‘int’ to ‘const std::error_condition&’
/usr/include/c++/5/system_error:303:3: note: candidate: bool std::operator==(const std::error_condition&, const std::error_condition&)
   operator==(const error_condition& __lhs,
   ^
/usr/include/c++/5/system_error:303:3: note:   no known conversion for argument 1 from ‘int’ to ‘const std::error_condition&’
In file included from /usr/include/c++/5/bits/locale_facets.h:48:0,
                 from /usr/include/c++/5/bits/basic_ios.h:37,
                 from /usr/include/c++/5/ios:44,
                 from /usr/include/c++/5/ostream:38,
                 from /usr/include/c++/5/iostream:39,
                 from ../../drivers/02-mystery.cpp:1:
/usr/include/c++/5/bits/streambuf_iterator.h:204:5: note: candidate: template<class _CharT, class _Traits> bool std::operator==(const std::istreambuf_iterator<_CharT, _Traits>&, const std::istreambuf_iterator<_CharT, _Traits>&)
     operator==(const istreambuf_iterator<_CharT, _Traits>& __a,
     ^
/usr/include/c++/5/bits/streambuf_iterator.h:204:5: note:   template argument deduction/substitution failed:
../../drivers/02-mystery.cpp:43:14: note:   mismatched types ‘const std::istreambuf_iterator<_CharT, _Traits>’ and ‘int’
    if ( 5 == b ) cout << "PASSED\n";
              ^
----------------------------------------
 ** : Creating object Objects/03-ultimate.o, from ../../drivers/03-ultimate.cpp
----------------------------------------

----------------------------------------
 ** : Creating object Objects/time_class.o from time_class.cpp
----------------------------------------

----------------------------------------
 ** : Creating binary 01-combined.exe, from Objects/01-combined.o
----------------------------------------

----------------------------------------
 ** : Creating binary 02-mystery.exe, from Objects/02-mystery.o
----------------------------------------

g++: error: Objects/02-mystery.o: No such file or directory
----------------------------------------
 ** : Creating binary 03-ultimate.exe, from Objects/03-ultimate.o
----------------------------------------

----------------------------------------
