23	12.00
26	13.50
26	13.50
26	13.50
26	13.50
26	13.50
26	13.50
26	13.50
26	13.50
26	13.50
26	13.50
26	13.50
26	13.50
26	13.50
26	13.50
26	13.50
26	13.50
36	18.50
36	18.50
36	18.50
36	18.50
36	18.50
36	18.50
36	18.50
36	18.50
36	18.50
36	18.50
36	18.50
36	18.50
36	18.50
36	18.50
36	18.50
36	18.50
45	23.00
45	23.00
45	23.00
45	23.00
45	23.00
45	23.00
45	23.00
45	23.00
45	23.00
45	23.00
45	23.00
45	23.00
45	23.00
45	23.00
45	23.00
45	23.00
52	26.50
52	26.50
52	26.50
52	26.50
52	26.50
52	26.50
52	26.50
52	26.50
52	26.50
52	26.50
52	26.50
52	26.50
52	26.50
52	26.50
52	26.50
52	26.50
66	33.50
71	36.00
71	36.00
71	36.00
71	36.00
71	36.00
71	36.00
71	36.00
71	36.00
71	36.00
71	36.00
71	36.00
71	36.00
71	36.00
71	36.00
71	36.00
71	36.00
82	41.50
87	44.00
87	44.00
87	44.00
87	44.00
87	44.00
87	44.00
87	44.00
87	44.00
87	44.00
87	44.00
87	44.00
87	44.00
87	44.00
87	44.00
87	44.00
87	44.00
87	44.00
