 ** : Creating object Objects/01-combined.o, from ../../drivers/01-combined.cpp
----------------------------------------

----------------------------------------
 ** : Creating object Objects/02-mystery.o, from ../../drivers/02-mystery.cpp
----------------------------------------

../../drivers/02-mystery.cpp: In function ‘int main()’:
../../drivers/02-mystery.cpp:24:37: error: passing ‘const Time’ as ‘this’ argument discards qualifiers [-fpermissive]
    cout << "\tTime b(" << b.minutes() << ");\t";
                                     ^
In file included from ../../drivers/02-mystery.cpp:2:0:
./time_class.h:35:16: note:   in call to ‘double Time::minutes()’
         double minutes();
                ^
----------------------------------------
 ** : Creating object Objects/03-ultimate.o, from ../../drivers/03-ultimate.cpp
----------------------------------------

----------------------------------------
 ** : Creating object Objects/time_class.o from time_class.cpp
----------------------------------------

----------------------------------------
 ** : Creating binary 01-combined.exe, from Objects/01-combined.o
----------------------------------------

----------------------------------------
 ** : Creating binary 02-mystery.exe, from Objects/02-mystery.o
----------------------------------------

g++: error: Objects/02-mystery.o: No such file or directory
----------------------------------------
 ** : Creating binary 03-ultimate.exe, from Objects/03-ultimate.o
----------------------------------------

----------------------------------------
