8598	4299.50
6506	3253.50
6322	3161.50
6438	3219.50
7370	3685.50
7363	3682.00
7048	3524.50
8866	4433.50
7559	3780.00
8367	4184.00
8212	4106.50
8639	4320.00
8503	4252.00
7129	3565.00
5118	2559.50
8671	4336.00
5948	2974.50
9298	4649.50
9444	4722.50
9402	4701.50
5039	2520.00
7559	3780.00
7126	3563.50
8353	4177.00
8362	4181.50
5545	2773.00
8553	4277.00
7681	3841.00
9307	4654.00
5454	2727.50
9986	4993.50
9667	4834.00
5827	2914.00
9729	4865.00
6225	3113.00
7847	3924.00
6656	3328.50
9115	4558.00
8356	4178.50
9230	4615.50
5712	2856.50
8291	4146.00
9721	4861.00
7082	3541.50
7306	3653.50
9215	4608.00
7423	3712.00
8988	4494.50
5133	2567.00
9284	4642.50
8609	4305.00
8386	4193.50
9061	4531.00
9811	4906.00
7256	3628.50
9135	4568.00
5340	2670.50
8758	4379.50
9923	4962.00
5613	2807.00
9138	4569.50
5282	2641.50
5234	2617.50
5573	2787.00
8750	4375.50
8252	4126.50
8512	4256.50
9149	4575.00
6426	3213.50
5752	2876.50
9525	4763.00
8176	4088.50
8837	4419.00
5687	2844.00
7773	3887.00
6750	3375.50
7655	3828.00
9235	4618.00
7828	3914.50
9783	4892.00
6190	3095.50
5461	2731.00
5433	2717.00
8037	4019.00
8569	4285.00
6305	3153.00
5200	2600.50
8720	4360.50
7177	3589.00
7796	3898.50
7233	3617.00
7624	3812.50
8104	4052.50
8540	4270.50
8191	4096.00
8272	4136.50
7118	3559.50
5608	2804.50
8342	4171.50
5936	2968.50
