::::::::::::::
00_overall.txt
::::::::::::::
Score A: 35
Score B: 44
Overall score: 44.00%
::::::::::::::
01_overall.txt
::::::::::::::
Score A: 20
Score B: 30
Overall score: 30.00%
::::::::::::::
02_overall.txt
::::::::::::::
Score A: 20
Score B: 30
Overall score: 30.00%
::::::::::::::
03_overall.txt
::::::::::::::
Score A: 40
Score B: 30
Overall score: 40.00%
::::::::::::::
04_overall.txt
::::::::::::::
Score A: 75
Score B: 74
Overall score: 75.00%
::::::::::::::
05_overall.txt
::::::::::::::
Score A: 25
Score B: 25
Overall score: 25.00%
::::::::::::::
06_overall.txt
::::::::::::::
Score A: 100
Score B: 99
Overall score: 100.00%
::::::::::::::
xibalba_overall.txt
::::::::::::::
Score A: 89.0786
Score B: 88.9986
Overall score: 89.08%
