5015	1278.94
5023	1376.18
5033	1257.38
5087	1342.20
5232	1390.48
5240	1291.04
5281	1462.40
5309	1397.82
5328	1355.26
5382	1379.50
5468	1415.98
5481	1440.94
5481	1511.11
5517	1462.76
5523	1534.29
5608	1511.96
5615	1469.44
5693	1531.29
5870	1613.59
5928	1542.48
5940	1611.16
6009	1679.13
6039	1620.02
6041	1641.67
6073	1625.69
6110	1651.58
6186	1626.19
6220	1544.39
6227	1733.14
6252	1558.42
6269	1674.52
6291	1749.29
6361	1695.18
6440	1720.30
6500	1668.82
6578	1876.26
6678	1766.13
6777	1791.72
6807	1801.33
6830	1807.32
6838	1850.75
6880	1819.87
6892	1852.14
6978	1935.96
6993	1894.73
7062	1854.76
7290	1907.50
7303	1876.40
7527	2157.62
7537	2080.32
7566	1965.90
7649	2006.68
7689	1978.24
7717	2138.52
7793	2011.40
7806	2103.15
7820	2074.16
7830	2027.51
7886	2089.98
7897	2035.92
7915	2029.58
7988	2108.86
8085	2130.98
8103	2125.95
8114	2174.11
8122	2098.48
8174	2134.49
8179	2174.59
8194	2187.39
8265	2135.55
8380	2193.23
8382	2133.39
8449	2336.27
8477	2242.86
8493	2182.49
8496	2284.78
8499	2337.31
8560	2261.12
8583	2331.03
8595	2283.02
8598	2103.73
8700	2336.08
9159	2425.14
9219	2589.63
9290	2587.29
9331	2555.17
9359	2413.00
9368	2432.57
9385	2468.11
9432	2545.08
9442	2451.76
9454	2369.72
9469	2583.51
9520	2520.51
9592	2418.76
9673	2630.21
9702	2630.15
9817	2539.40
9827	2646.78
9881	2711.23
