 ** : Creating object Objects/01-range-20-100.o, from ../../drivers/01-range-20-100.cpp
----------------------------------------

In file included from ../../drivers/01-range-20-100.cpp:6:0:
./hw3.h: In function 'void random_vector(std::vector<int>&, int)':
./hw3.h:26:32: warning: comparison between signed and unsigned integer expressions [-Wsign-compare]
     for (int j = 0; j < a.size(); j++)
                                ^
----------------------------------------
 ** : Creating object Objects/02-range-100-5k.o, from ../../drivers/02-range-100-5k.cpp
----------------------------------------

In file included from ../../drivers/02-range-100-5k.cpp:6:0:
./hw3.h: In function 'void random_vector(std::vector<int>&, int)':
./hw3.h:26:32: warning: comparison between signed and unsigned integer expressions [-Wsign-compare]
     for (int j = 0; j < a.size(); j++)
                                ^
----------------------------------------
 ** : Creating object Objects/03-range-5k-10k.o, from ../../drivers/03-range-5k-10k.cpp
----------------------------------------

In file included from ../../drivers/03-range-5k-10k.cpp:6:0:
./hw3.h: In function 'void random_vector(std::vector<int>&, int)':
./hw3.h:26:32: warning: comparison between signed and unsigned integer expressions [-Wsign-compare]
     for (int j = 0; j < a.size(); j++)
                                ^
----------------------------------------
 ** : Creating object Objects/01-range-20-100.o, from ../../drivers/01-range-20-100.cpp
----------------------------------------

In file included from ../../drivers/01-range-20-100.cpp:6:0:
./hw3.h: In function 'void random_vector(std::vector<int>&, int)':
./hw3.h:26:32: warning: comparison between signed and unsigned integer expressions [-Wsign-compare]
     for (int j = 0; j < a.size(); j++)
                                ^
----------------------------------------
 ** : Creating object Objects/02-range-100-5k.o, from ../../drivers/02-range-100-5k.cpp
----------------------------------------

In file included from ../../drivers/02-range-100-5k.cpp:6:0:
./hw3.h: In function 'void random_vector(std::vector<int>&, int)':
./hw3.h:26:32: warning: comparison between signed and unsigned integer expressions [-Wsign-compare]
     for (int j = 0; j < a.size(); j++)
                                ^
----------------------------------------
 ** : Creating object Objects/03-range-5k-10k.o, from ../../drivers/03-range-5k-10k.cpp
----------------------------------------

In file included from ../../drivers/03-range-5k-10k.cpp:6:0:
./hw3.h: In function 'void random_vector(std::vector<int>&, int)':
./hw3.h:26:32: warning: comparison between signed and unsigned integer expressions [-Wsign-compare]
     for (int j = 0; j < a.size(); j++)
                                ^
----------------------------------------
 ** : Creating binary 01-range-20-100.exe, from Objects/01-range-20-100.o
----------------------------------------

----------------------------------------
 ** : Creating binary 02-range-100-5k.exe, from Objects/02-range-100-5k.o
----------------------------------------

----------------------------------------
 ** : Creating binary 03-range-5k-10k.exe, from Objects/03-range-5k-10k.o
----------------------------------------

----------------------------------------
