 ** : Attempting to run: 01-range-20-100.exe
	Completed in:	0:00.05	[hr:]min:sec
 ** : Attempting to run: 02-range-100-5k.exe
	Completed in:	0:01.46	[hr:]min:sec
 ** : Attempting to run: 03-range-5k-10k.exe
	Completed in:	0:04.39	[hr:]min:sec
 ** : Attempting to run: 03-range-5k-10k.exe
	Completed in:	0:04.35	[hr:]min:sec
