 ** : Creating object Objects/hw1-driver.o, from ../../drivers/hw1-driver.cpp
----------------------------------------

----------------------------------------
 ** : Creating object Objects/hw1.o from hw1.cpp
----------------------------------------

----------------------------------------
 ** : Creating binary hw1-driver.exe, from Objects/hw1-driver.o
----------------------------------------

----------------------------------------
