66	41.62
70	42.23
71	44.12
20	13.13
57	36.49
58	38.07
77	49.12
33	20.26
89	56.76
35	22.51
24	15.39
51	32.43
36	24.36
34	22.33
41	25.53
89	56.38
98	62.51
60	40.28
87	56.78
77	47.09
35	21.86
91	55.27
88	56.26
75	47.39
83	51.38
37	24.29
69	44.47
65	41.23
32	20.04
63	40.61
22	15.43
68	45.42
62	38.70
70	43.76
37	24.38
35	23.18
99	63.47
93	58.24
42	27.33
97	61.61
73	44.31
55	34.10
55	33.93
77	46.75
98	61.94
89	58.30
31	20.00
55	35.62
51	34.91
48	28.74
89	57.69
22	14.64
50	32.63
92	59.98
22	14.09
50	31.66
63	40.95
42	28.09
72	45.65
71	45.88
70	44.20
60	41.37
25	15.71
93	59.29
60	37.86
46	30.63
33	21.21
83	53.52
33	20.91
59	37.69
34	21.52
29	20.31
79	49.64
30	19.31
43	27.93
41	26.52
36	21.97
66	44.36
90	58.00
33	19.80
62	40.05
23	15.70
21	13.69
20	12.81
44	28.80
27	17.65
31	21.06
63	39.26
73	47.48
28	18.58
75	47.92
50	33.31
59	35.69
35	23.67
33	20.47
33	22.50
76	49.73
22	13.66
51	31.98
98	61.72
