*****************************************
Additional testing!!!
*****************************************
	Time a(61);		a =  1:01

Testing `const` correctness:
	Time b(5);	PASSED	b =  0:05


Testing boolean expressions:
	 a != 5		PASSED
	 b == 5		PASSED
	 5 != a		PASSED
	 5 == b		PASSED

